
     {
        "cellphones": [

                    {
                        "tradename": "Huawei Mate P30",
                        "brand": "Huawei",
                        "slug": "huawei-mate-p30",
                        "order_mobile": "3",
                        "order_desktop": "2",
                        "is_main_cellphone": "0",
                        "is_outstanding_cellphone": "1",
                        "stock": "15",
                        "features": [
                            {
                                "name": "Dimensión Alto",
                                "description": "15,09 cm",
                                "icon": "fa fa-dimension-alto"
                            },
                            {
                                "name": "Dimensión Ancho",
                                "description": "7,57 cm",
                                "icon": "fa fa-dimension-ancho"
                            },
                            {
                                "name": "Tamaño pantalla",
                                "description": "6,1 pulgadas",
                                "icon": "fa fa-pantalla"
                            },
                            {
                                "name": "Memoria interna",
                                "description": "64 GB",
                                "icon": "fa fa-memoria-interna"
                            },
                            {
                                "name": "Cámara trasera",
                                "description": "32Mpx",
                                "icon": "fa fa-camera-posterior"
                            },
                            {
                                "name": "Cámara frontal",
                                "description": "12Mpx",
                                "icon": "fa fa-camera-frontal"
                            },
                            {
                                "name": "Bateria ",
                                "description": "22 horas",
                                "icon": "fa fa-bateria"
                            },
                            {
                                "name": "Memoria Ram ",
                                "description": "4 GB",
                                "icon": "fa fa-memoria-ram"
                            }
                        ],
                        "colors": [
                            {
                                "color_name": "rojo",
                                "color": "#627324",
                                "janus_cellphone_name": "LTE HUAWEI MATE P30 MORADO",
                                "stock": "5"
                            },
                            {
                                "color_name": "negro",
                                "color": "#00000",
                                "janus_cellphone_name": "LTE HUAWEI MATE P30 NEGRO",
                                "stock": "10"
                            }
                        ],
                        "prices": [
                            {
                                "prices_main": [
                                    {
                                        "channel_type": "B2C",
                                        "name": "phoenix",
                                        "plan": "Plan Smart M",
                                        "fees number": "18",
                                        "renewal_fee": "30",
                                        "renewal_total": "250",
                                        "alta_fee": "30",
                                        "alta_total": "260",
                                        "cash": "330",
                                        "order": "1"
                                    }
                                    
                                    
                                ],
                                "prices_comparative": [
                                    {
                                        "channel_type": "C2C",
                                        "name": "cavs",
                                        "plan": "",
                                        "fees number": "",
                                        "renewal_fee": "Plan Smart M",
                                        "renewal_total": "17",
                                        "alta_fee": "260",
                                        "alta_total": "300",
                                        "cash": "340",
                                        "order": "1"
                                    }
                                ]
                            }
                        ],
                        "multimedia": [
                            {
                                "type": "imagen",
                                "name": "Frontal",
                                "path": "test-site/frontal.jpg",
                                "video": "",
                                "html": ""
                            },
                            {
                                "type": "imagen",
                                "name": "Posterior",
                                "path": "test-site/posterior.jpg",
                                "video": "",
                                "html": ""
                            }
                        ],
                        "content_tags": [
                            {
                                "type": "Equipo",
                                "tag_name": "etiqueta_superior",
                                "tag_value": "Recomendado"
                            },
                            {
                                "type": "Equipo",
                                "tag_name": "etiqueta_inferior",
                                "tag_value": "Compralo ahora!!"
                            }
                        ]
                    }
                
            
        ],
        "promotions":[
                {
                    "2x1 Smartphone":{
                            "name":"2x1 Smartphone",
                            "type":"2x1",
                            "product":"renovación",
                            "image":"reno-2x1-smartphone.jpg",
                            "cellphones":[
                                {
                                    "iphone_xr_64gb": [
                                            {
                                                "tradename": "Iphone XR 64GB",
                                                "brand": "Apple",
                                                "slug": "iphone_xr_64gb",
                                                "order_mobile": "1",
                                                "order_desktop": "4",
                                                "is_main_cellphone": "1",
                                                "is_outstanding_cellphone": "0",
                                                "stock": "20",
                                                "features": [
                                                    {
                                                        "name": "Dimensión Alto",
                                                        "description": "15,09 cm",
                                                        "icon": "fa fa-dimension-alto"
                                                    },
                                                    {
                                                        "name": "Dimensión Ancho",
                                                        "description": "7,57 cm",
                                                        "icon": "fa fa-dimension-ancho"
                                                    },
                                                    {
                                                        "name": "Tamaño pantalla",
                                                        "description": "6,1 pulgadas",
                                                        "icon": "fa fa-pantalla"
                                                    },
                                                    {
                                                        "name": "Memoria interna",
                                                        "description": "64 GB",
                                                        "icon": "fa fa-memoria-interna"
                                                    },
                                                    {
                                                        "name": "Cámara trasera",
                                                        "description": "32Mpx",
                                                        "icon": "fa fa-camera-posterior"
                                                    },
                                                    {
                                                        "name": "Cámara frontal",
                                                        "description": "12Mpx",
                                                        "icon": "fa fa-camera-frontal"
                                                    },
                                                    {
                                                        "name": "Bateria ",
                                                        "description": "22 horas",
                                                        "icon": "fa fa-bateria"
                                                    },
                                                    {
                                                        "name": "Memoria Ram ",
                                                        "description": "4 GB",
                                                        "icon": "fa fa-memoria-ram"
                                                    }
                                                ],
                                                "colors": [
                                                    {
                                                        "color_name": "rojo",
                                                        "color": "#627324",
                                                        "janus_cellphone_name": "LTE IPHONE XR 64 GB ROJO",
                                                        "stock": "10"
                                                    },
                                                    {
                                                        "color_name": "negro",
                                                        "color": "#00000",
                                                        "janus_cellphone_name": "LTE IPHONE XR 64 GB NEGRO",
                                                        "stock": "10"
                                                    }
                                                ],
                                                "prices": [
                                                    {
                                                        "prices_main": [
                                                            {
                                                                "channel_type": "B2C",
                                                                "name": "precio promoción",
                                                                "plan": "Plan Smart M",
                                                                "fees number": "",
                                                                "renewal_fee": "",
                                                                "renewal_total": "0.20",
                                                                "alta_fee": "N/A",
                                                                "alta_total": "N/A",
                                                                "cash": "0.20",
                                                                "order": "1"
                                                            }
                                                        ]
                                                    }
                                                ],
                                                "multimedia": [
                                                    {
                                                        "type": "imagen",
                                                        "name": "Frontal",
                                                        "path": "test-site/frontal.jpg",
                                                        "video": "",
                                                        "html": ""
                                                    },
                                                    {
                                                        "type": "imagen",
                                                        "name": "Posterior",
                                                        "path": "test-site/posterior.jpg",
                                                        "video": "",
                                                        "html": ""
                                                    }
                                                ],
                                                "content_tags": [
                                                    {
                                                        "type": "Equipo",
                                                        "tag_name": "etiqueta_superior",
                                                        "tag_value": "Recomendado"
                                                    },
                                                    {
                                                        "type": "Equipo",
                                                        "tag_name": "etiqueta_inferior",
                                                        "tag_value": "Compralo ahora!!"
                                                    }
                                                ]
                                            }
                    ],
        
                                }
                                
                                
                                ]
                                
                        
                            
                    }
                },
                {
                    "Promo Accesorio":{
                        "name":"Promo Accesorio",
                        "type":"accesorio",
                        "product":"renovación",
                        "image":"accesorio-promo.jpg",
                        "accesories":[
                            {
                               "parlante mediano":{
                                   "name":"Parlante Mediano Rosado",
                                   "image":"parlante-mediano.jpg"
                                   
                               } 
                                
                            }
                            
                            ]
                        
                    }
                },
                {
                    "Bonos Promo":{
                                "name":"Bono 1GB",
                                "type":"bono",
                                "product":"renovación",
                                "image":"bono-1gb.jpg",
                                "bonuses":[
                                    {
                                        "Bono 1GB":{
                                            "type":"bono",
                                            "image":"bono-1gb-jpg",
                                            "description":"Bono 1GB para Redes Sociales",
                                            "vigencia":"30 dias"
                                        }
                                    }
                                    ]
                            }
                }
            ]
    }
            
