<?xml version="1.0" encoding="UTF-8"?>
<svg width="80px" height="80px" viewBox="0 0 80 80" version="1.1" xmlns="http://www.w3.org/2000/svg" xmlns:xlink="http://www.w3.org/1999/xlink">
    <!-- Generator: Sketch 56.3 (81716) - https://sketch.com -->
    <title>iconos-acc-05</title>
    <desc>Created with Sketch.</desc>
    <g id="ACCESIBILIDAD" stroke="none" stroke-width="1" fill="none" fill-rule="evenodd">
        <g id="1D---Accesibilidad-(Página-Interna)" transform="translate(-843.000000, -924.000000)" fill-rule="nonzero">
            <g id="ACCESIBILIDAD" transform="translate(0.000000, 351.000000)">
                <g id="Group-16">
                    <g id="Group-14" transform="translate(251.000000, 244.000000)">
                        <g id="Group-10" transform="translate(479.000000, 329.000000)">
                            <g id="iconos-acc-05" transform="translate(113.000000, 0.000000)">
                                <g id="Group">
                                    <path d="M40.0599251,0.0898876404 C18.0374532,0.0898876404 0.119850187,18.0074906 0.119850187,40.0299625 C0.119850187,62.0524345 18.0374532,79.9700375 40.0599251,79.9700375 C48.6292135,79.9700375 56.7490637,77.3033708 63.6104869,72.2996255 C64.2696629,71.8202247 64.7191011,71.1011236 64.8389513,70.2921348 C64.9588015,69.4831461 64.7790262,68.6741573 64.2696629,67.9850187 C63.2509363,66.6067416 61.3333333,66.3071161 59.9550562,67.3258427 C54.1423221,71.5805243 47.2509363,73.8277154 40.0299625,73.8277154 C21.423221,73.8277154 6.26217228,58.6666667 6.26217228,40.0599251 C6.26217228,21.423221 21.423221,6.29213483 40.0299625,6.29213483 C58.6666667,6.29213483 73.7977528,21.4531835 73.7977528,40.0599251 C73.7977528,47.5805243 71.3707865,54.7116105 66.7865169,60.6441948 C66.2771536,61.3033708 66.0674157,62.1123596 66.1573034,62.9213483 C66.247191,63.7303371 66.6666667,64.4494382 67.3258427,64.9588015 C68.6741573,66.0074906 70.6217228,65.7378277 71.670412,64.3895131 C77.093633,57.3483146 79.970075,48.928839 79.970075,40.0299625 C80,18.0074906 62.082397,0.0898876404 40.0599251,0.0898876404" id="Path" fill="#50535A"></path>
                                    <path d="M50.6966292,39.9400749 C50.6966292,45.6629213 46.0524345,50.3071161 40.329588,50.3071161 C34.6067416,50.3071161 29.9625468,45.6629213 29.9625468,39.9400749 C29.9625468,34.2172285 34.6067416,29.5730337 40.329588,29.5730337 C46.0524345,29.5730337 50.6966292,34.2172285 50.6966292,39.9400749 M21.9925094,39.9400749 C21.9925094,50.0374532 30.2022472,58.2771536 40.329588,58.2771536 C50.4569288,58.2771536 58.6666667,50.0674157 58.6666667,39.9400749 C58.6666667,29.8426966 50.4569288,21.6029963 40.329588,21.6029963 C30.2022472,21.6029963 21.9925094,29.8426966 21.9925094,39.9400749" id="Shape" fill="#EC6839"></path>
                                </g>
                            </g>
                        </g>
                    </g>
                </g>
            </g>
        </g>
    </g>
</svg>