{
    "catalogo-menu": {
        "cellphones": [
            {
                "tradename": "Iphone XR 64GB",
                "slug": "iphone_xr_64gb",
                "order_mobile": "1",
                "order_desktop": "4",
                "is_outstanding_cellphone": "0",
                "stock": "20",
                "features": [
                    {
                        "name": "Memoria interna",
                        "description": "64 GB",
                        "icon": "fa fa-memoria-interna"
                    }
                ],
                "prices": [
                    {
                        "prices_main": [
                            {
                                "channel_type": "B2C",
                                "name": "phoenix",
                                "plan": "Plan Smart M",
                                "fees number": "18",
                                "renewal_fee": "30",
                                "renewal_total": "250",
                                "alta_fee": "30",
                                "alta_total": "260",
                                "cash": "330",
                                "order": "1"
                            }
                        ],
                        "prices_comparative": [
                            {
                                "channel_type": "C2C",
                                "name": "cavs",
                                "plan": "",
                                "fees number": "",
                                "renewal_fee": "Plan Smart M",
                                "renewal_total": "17",
                                "alta_fee": "260",
                                "alta_total": "300",
                                "cash": "340",
                                "order": "1"
                            }
                        ]
                    }
                ],
                "multimedia": [
                    {
                        "type": "imagen",
                        "name": "Frontal",
                        "path": "test-site/frontal.jpg",
                        "video": "",
                        "html": ""
                    }
                ]
            }
        ],
        "plans": [
            {
                "slug": "plan-smart-ilimitado-m",
                "name": "Plan Smart Ilimitado M",
                "channel_name": "B2C",
                "janus_name": "Plan Smart Ilimitado $24.99",
                "prices": [
                    {
                        "name": "phoenix",
                        "price": "24.99",
                        "tax": "12"
                    }
                ],
                "benefits": [
                    {
                        "outstanding_benefit": [
                            {
                                "type": "plan",
                                "description": "Movistar play gratis",
                                "icon": "fa fa-movistar-play"
                            }
                        ],
                        "normal_benefits": [
                            {
                                "type": "plan",
                                "description": "SMS ilimitados Movistar",
                                "icon": "fa fa-sms-ilimitados"
                            },
                            {
                                "type": "plan",
                                "description": "Whatsapp gratis",
                                "icon": "fa fa-whatsapp-gratis"
                            }
                        ]
                    }
                ],
                "content_tags": [
                    {
                        "type": "Plan",
                        "tag_name": "etiqueta_superior",
                        "tag_value": "Recomendado"
                    }
                ]
            }
        ],
        "combos": [
            {
                "type": "combo",
                "name": "Combo megas 2$",
                "slug": "combo-megas-2",
                "title": "Combo 2MB",
                "price": "$2",
                "validity": "3 dias",
                "promotion": "Whatsapp ilimitado",
                "benefits": [
                    {
                        "outstanding_benefit": [
                            {
                                "name": "Movistar play gratis",
                                "icon": "fa fa-movistar-play"
                            }
                        ],
                        "normal_benefits": [
                            {
                                "name": "10 minutos a todas las operadoras",
                                "icon": "fa fa-minutos-operadoras"
                            }
                        ]
                    }
                ]
            },
            {
                "type": "combo",
                "name": "Combo 100MB",
                "slug": "combo-100mb",
                "title": "100 MB",
                "price": "$1",
                "validity": "1 dia",
                "promotion": "Whatsapp gratis llamadas y chat",
                "benefits": [
                    {
                        "outstanding_benefit": [
                            {
                                "name": "Movistar play gratis",
                                "icon": "fa fa-movistar-play"
                            }
                        ],
                        "normal_benefits": [
                            {
                                "name": "10 minutos a todas las operadoras",
                                "icon": "fa fa-minutos-operadoras"
                            }
                        ]
                    }
                ]
            }
        ]
    }
}