<?xml version="1.0" encoding="UTF-8"?>
<svg width="70px" height="70px" viewBox="0 0 70 70" version="1.1" xmlns="http://www.w3.org/2000/svg" xmlns:xlink="http://www.w3.org/1999/xlink">
    <!-- Generator: sketchtool 57.1 (101010) - https://sketch.com -->
    <title>AAF215E2-2C34-4B9B-8038-1C110FF2C801</title>
    <desc>Created with sketchtool.</desc>
    <defs>
        <polygon id="path-1" points="0 6.40625e-05 55.90445 6.40625e-05 55.90445 40.7267734 0 40.7267734"></polygon>
    </defs>
    <g id="Page-1" stroke="none" stroke-width="1" fill="none" fill-rule="evenodd">
        <g id="2D---Movistar-Cloud" transform="translate(-543.000000, -1047.000000)">
            <rect fill="#FFFFFF" x="0" y="0" width="1440" height="1930"></rect>
            <g id="Caracteristicas" transform="translate(0.000000, 935.000000)">
                <g id="Group-5" transform="translate(0.000000, 80.000000)">
                    <rect id="Rectangle" fill="#F4F4F3" x="0" y="0" width="1440" height="260"></rect>
                    <g id="Envío-gratis-Copy" transform="translate(418.000000, 32.000000)">
                        <g id="icono-multidispositivo-outlined" transform="translate(125.000000, 0.000000)">
                            <g id="Group-3" transform="translate(7.000000, 14.000000)">
                                <mask id="mask-2" fill="white">
                                    <use xlink:href="#path-1"></use>
                                </mask>
                                <g id="Clip-2"></g>
                                <path d="M45.78245,31.2785797 C44.4931773,31.2785797 43.6604955,32.1197203 43.6604955,33.42115 C43.6604955,34.2216109 43.9656318,34.7040016 44.2217682,34.9679391 C44.4855409,35.2395641 44.9701318,35.5637203 45.78245,35.5637203 C46.5947682,35.5637203 47.0793591,35.2395641 47.3428136,34.9679391 C47.59895,34.7036812 47.9040864,34.2212906 47.9040864,33.42115 C47.9040864,32.1197203 47.0714045,31.2785797 45.78245,31.2785797 L45.78245,31.2785797 Z M52.7226318,34.7254625 C52.7226318,35.8010719 52.5253591,36.5435562 52.1365409,36.931775 C51.74995,37.3177516 51.01495,37.5137828 49.9525409,37.5137828 L41.6120409,37.5137828 C40.5496318,37.5137828 39.8146318,37.3177516 39.4280409,36.931775 C39.0392227,36.5435562 38.8422682,35.8010719 38.8422682,34.7254625 L38.8422682,16.1694391 C38.8422682,14.084525 39.5409955,13.3811187 41.6120409,13.3811187 L49.9525409,13.3811187 C52.07545,13.3811187 52.7226318,14.0326344 52.7226318,16.1694391 L52.7226318,34.7254625 Z M35.66045,16.1694391 L35.66045,31.2305328 L9.34649545,31.2305328 C7.15549545,31.2305328 5.61422273,30.6815172 4.63549545,29.5524156 C3.67076818,28.4402906 3.18172273,26.6644781 3.18172273,24.2752672 L3.18172273,10.1578141 C3.18172273,7.76892344 3.67076818,5.99343125 4.63549545,4.88066563 C5.61422273,3.75156406 7.15549545,3.20318906 9.34649545,3.20318906 L38.0022682,3.20318906 C40.1932682,3.20318906 41.7342227,3.75156406 42.7132682,4.88066563 C43.6776773,5.99343125 44.1670409,7.76892344 44.1670409,10.1578141 L44.1670409,10.1779938 L41.6120409,10.1779938 C37.7738136,10.1779938 35.66045,12.3058297 35.66045,16.1694391 L35.66045,16.1694391 Z M49.9525409,10.1779937 L47.3488591,10.1779937 L47.3488591,10.1578141 C47.3488591,6.97166562 46.5957227,4.48732187 45.11045,2.77429062 C43.5138136,0.933454688 41.1223591,6.40625e-05 38.0022682,6.40625e-05 L9.34649545,6.40625e-05 C6.22640455,6.40625e-05 3.83463182,0.933454688 2.23831364,2.77429062 C0.753040909,4.48732187 -9.54545455e-05,6.97166562 -9.54545455e-05,10.1578141 L-9.54545455e-05,24.2752672 C-9.54545455e-05,27.4617359 0.753040909,29.9460797 2.23831364,31.6587906 C3.83463182,33.4999469 6.22640455,34.4336578 9.34649545,34.4336578 L35.66045,34.4336578 L35.66045,34.7254625 C35.66045,38.6448062 37.7181318,40.7169078 41.6120409,40.7169078 L49.9525409,40.7169078 C53.84645,40.7169078 55.90445,38.6448062 55.90445,34.7254625 L55.90445,16.1694391 C55.90445,12.249775 53.84645,10.1779937 49.9525409,10.1779937 L49.9525409,10.1779937 Z M30.2663136,37.5237125 L16.3060864,37.5237125 C15.4275864,37.5237125 14.7151773,38.2405719 14.7151773,39.125275 C14.7151773,40.0096578 15.4275864,40.7268375 16.3060864,40.7268375 L30.2663136,40.7268375 C31.1448136,40.7268375 31.8572227,40.0096578 31.8572227,39.125275 C31.8572227,38.2405719 31.1448136,37.5237125 30.2663136,37.5237125 L30.2663136,37.5237125 Z" id="Fill-1" fill="#4E525A" mask="url(#mask-2)"></path>
                            </g>
                        </g>
                    </g>
                </g>
            </g>
        </g>
    </g>
</svg>