<?xml version="1.0" encoding="UTF-8"?>
<svg width="70px" height="70px" viewBox="0 0 70 70" version="1.1" xmlns="http://www.w3.org/2000/svg" xmlns:xlink="http://www.w3.org/1999/xlink">
    <!-- Generator: sketchtool 57.1 (101010) - https://sketch.com -->
    <title>F140995C-BC43-495F-8766-D56692F98BE8</title>
    <desc>Created with sketchtool.</desc>
    <g id="Page-1" stroke="none" stroke-width="1" fill="none" fill-rule="evenodd">
        <g id="2D---Movistar-Cloud" transform="translate(-828.000000, -737.000000)">
            <rect fill="#FFFFFF" x="0" y="0" width="1440" height="1930"></rect>
            <g id="Instrucciones" transform="translate(133.000000, 627.000000)" fill="#4E525A" fill-rule="nonzero">
                <g id="Envío-gratis-Copy-5" transform="translate(570.000000, 110.000000)">
                    <g id="icono-multidispositivo-outlined" transform="translate(125.000000, 0.000000)">
                        <path d="M41.7078476,35.5397794 L18.2122118,35.5397794 C17.3157565,35.5397794 16.5887406,36.2553672 16.5887406,37.1380614 C16.5887406,38.0200945 17.3157565,38.7356272 18.2122118,38.7356272 L41.7078476,38.7356272 C42.6046387,38.7356272 43.3313189,38.0200394 43.3313189,37.1380614 C43.3313189,36.2553672 42.6046947,35.5397794 41.7078476,35.5397794 L41.7078476,35.5397794 Z M52.7879002,23.0758902 L18.2122118,23.0758902 C17.3157565,23.0758902 16.5887406,23.791478 16.5887406,24.6738416 C16.5887406,25.5565358 17.3157565,26.2721237 18.2122118,26.2721237 L52.7879002,26.2721237 C53.6846913,26.2721237 54.4113714,25.5565358 54.4113714,24.6738416 C54.4113714,23.791478 53.6847472,23.0758902 52.7879002,23.0758902 L52.7879002,23.0758902 L52.7879002,23.0758902 Z M60.7531695,44.5950948 C60.7531695,47.2835629 58.5141305,49.4705465 55.7621276,49.4705465 L24.4258809,49.4705465 C23.9264073,49.4705465 23.4546418,49.6969362 23.1470538,50.084482 L16.5870053,58.3436592 L16.5870053,51.0684979 C16.5870053,50.1861343 15.8599894,49.4705465 14.9635341,49.4705465 C12.2748401,49.4705465 10.2469424,47.3743061 10.2469424,44.5950948 L10.2469424,17.072732 C10.2469424,14.3835477 12.4884444,12.1955173 15.2436939,12.1955173 L55.7621276,12.1955173 C58.5141865,12.1955173 60.7531695,14.3835477 60.7531695,17.072732 L60.7531695,44.5950948 Z M55.7621276,9 L15.2436939,9 C10.6979968,9 7,12.6212997 7,17.072732 L7,44.5950948 C7,48.555621 9.67873031,51.7654633 13.3400069,52.5052383 L13.3400069,59.1654171 C13.3400069,60.6753802 14.7316816,62 16.3180967,62 C16.6962145,62 17.8465207,62 18.8351684,60.7023772 L25.2175492,52.6664494 L55.7620157,52.6664494 C60.3044661,52.6664494 64,49.0455353 64,44.5950948 L64,17.072732 C64,12.6212997 60.3045221,9 55.7620157,9 L55.7620157,9 L55.7621276,9 Z" id="Shape"></path>
                    </g>
                </g>
            </g>
        </g>
    </g>
</svg>