<?xml version="1.0" encoding="UTF-8"?>
<svg width="70px" height="70px" viewBox="0 0 70 70" version="1.1" xmlns="http://www.w3.org/2000/svg" xmlns:xlink="http://www.w3.org/1999/xlink">
    <!-- Generator: sketchtool 57.1 (101010) - https://sketch.com -->
    <title>F0380659-88F0-47AE-ACD0-AA24733CDFE0</title>
    <desc>Created with sketchtool.</desc>
    <g id="Page-1" stroke="none" stroke-width="1" fill="none" fill-rule="evenodd">
        <g id="1D---Movistar-Cloud" transform="translate(-1067.000000, -1047.000000)">
            <rect fill="#FFFFFF" x="0" y="0" width="1440" height="2111"></rect>
            <g id="Caracteristicas" transform="translate(2.000000, 935.000000)">
                <g id="Group-5" transform="translate(0.000000, 80.000000)">
                    <rect id="Rectangle" fill="#F4F4F3" x="0" y="0" width="1440" height="260"></rect>
                    <g id="Envío-gratis-Copy-2" transform="translate(925.000000, 0.000000)">
                        <polygon id="Background" fill="#F4F4F3" points="0 0 350 0 350 260 0 260"></polygon>
                        <g id="icono-nube-outlined" transform="translate(140.000000, 32.000000)" fill="#4E525A" fill-rule="nonzero">
                            <path d="M59.3413148,35.2398671 L59.3413148,35.2398671 C58.3313017,34.3561462 57.2076622,33.5986711 55.9703962,33.0179402 C57.2455377,31.2883721 57.9020461,29.0664452 57.9020461,26.3900332 C57.9020461,19.7747508 54.0008707,16 47.1454071,16 C41.8933391,16 38.2825424,18.2219269 37.0200261,22.2365449 C37.0200261,22.2365449 37.0200261,22.2491694 37.0200261,22.2491694 L36.9569003,22.2491694 C36.3382673,22.1229236 35.694384,22.110299 35,22.110299 C34.305616,22.110299 33.6617327,22.1607973 33.0430997,22.2491694 C31.6795821,18.2345515 28.1445364,16.0126246 22.8924684,16.0126246 C16.0370048,16.0126246 12.110579,19.8 12.110579,26.4152824 C12.110579,29.1043189 12.7544623,31.3388704 14.042229,33.055814 C12.8175882,33.6365449 11.6813235,34.3940199 10.6713104,35.30299 C7.57814541,38.1182724 6,42.2591362 6,47.5993355 C6,50.6039867 7.66652155,52.4724252 11.0753156,53.2930233 C13.9412277,54 17.8929038,54 22.8924684,54 C25.2659991,54 27.4122769,54 29.3060514,53.9242525 C30.9725729,54 32.8663474,54 35,54 C37.1336526,54 39.0274271,54 40.6939486,53.9242525 C42.5877231,54 44.7340009,54 47.1075316,54 C52.1070962,54 56.0587723,54 58.9246844,53.2930233 C62.3334785,52.4598007 64,50.5787375 64,47.5740864 C64,42.2086379 62.4344798,38.1435216 59.3413148,35.2398671 L59.3413148,35.2398671 Z M47.1075316,18.1083056 C51.0592077,18.1083056 55.7810187,19.5475083 55.7810187,26.4026578 C55.7810187,28.9906977 55.1245102,30.9980066 53.8241184,32.3740864 C53.3822377,32.8285714 52.8898563,33.2199336 52.321724,33.5481728 C50.9582064,34.3182724 49.2159338,34.7096346 47.1201567,34.7096346 C45.7945146,34.7096346 44.6203744,34.5581395 43.585111,34.2425249 C43.9133653,33.2325581 44.0774924,32.0963455 44.0774924,30.8465116 C44.0774924,26.7435216 42.2847192,23.9408638 39.0274271,22.7415282 L39.0274271,22.7415282 C39.0274271,22.7415282 39.0274271,22.7415282 39.0274271,22.7415282 C40.3909447,18.9920266 43.9891162,18.1083056 47.1075316,18.1083056 Z M33.4849804,24.0166113 C33.9899869,23.9534884 34.4949935,23.9282392 35,23.9282392 C35.5050065,23.9282392 35.9973879,24.0039867 36.5150196,24.0039867 L36.5150196,24.0039867 L36.5150196,24.0292359 C36.5150196,24.0292359 36.5150196,24.0292359 36.5150196,24.0292359 C36.5655202,24.0292359 36.6033957,24.0418605 36.6538964,24.0418605 C36.6917719,24.0418605 36.7296474,24.054485 36.780148,24.054485 C37.1589029,24.117608 37.5250327,24.1933555 37.8911624,24.2943522 C38.1184153,24.3574751 38.3204179,24.4458472 38.5476709,24.5342193 L38.5476709,24.5342193 C38.5476709,24.5342193 38.5476709,24.5215947 38.5476709,24.5215947 C38.560296,24.5215947 38.560296,24.5215947 38.5729212,24.5342193 C40.6055725,25.3548173 42.2342185,27.1601329 42.2342185,30.8212625 C42.2342185,31.8186047 42.1205921,32.7149502 41.880714,33.4976744 C41.6660862,34.2172757 41.3630823,34.848505 40.9590771,35.3787375 C40.8454506,35.5302326 40.7318241,35.669103 40.6055725,35.7953488 C40.2394428,36.1740864 39.8354375,36.489701 39.3556813,36.7674419 C38.711798,37.1335548 37.9669134,37.3986711 37.1210274,37.5501661 C36.6033957,37.6511628 36.0352634,37.7016611 35.4418807,37.7269103 C35.3030039,37.7269103 35.1641271,37.7395349 35.0252503,37.7395349 C34.8611232,37.7395349 34.6843709,37.7395349 34.532869,37.7269103 C34.4823683,37.7269103 34.4192425,37.7269103 34.3687418,37.7142857 C34.2551154,37.7142857 34.1414889,37.7016611 34.0404876,37.6890365 C33.9773618,37.6890365 33.9268611,37.676412 33.8637353,37.676412 C33.7501088,37.6637874 33.6364824,37.6511628 33.5354811,37.6385382 C33.4849804,37.6385382 33.4344798,37.6259136 33.3966043,37.6259136 C33.2451023,37.6006645 33.0936003,37.5754153 32.9420984,37.5501661 C32.0962125,37.3860465 31.3513278,37.1335548 30.7074445,36.7674419 C30.2276883,36.489701 29.8110579,36.1740864 29.4575533,35.7953488 C29.3313017,35.669103 29.2176752,35.5302326 29.1040488,35.3787375 C28.7000435,34.848505 28.3844145,34.2172757 28.1824118,33.4976744 C27.9425337,32.7149502 27.8289073,31.8186047 27.8289073,30.8212625 C27.8289073,27.1601329 29.4575533,25.3548173 31.4902046,24.5215947 C32.0962125,24.269103 32.7905964,24.1049834 33.4849804,24.0166113 L33.4849804,24.0166113 Z M22.8924684,18.1083056 C26.0108838,18.1083056 29.6090553,19.0046512 30.9851981,22.7415282 C27.727906,23.9408638 25.9351328,26.7435216 25.9351328,30.8465116 C25.9351328,32.0963455 26.0992599,33.2325581 26.4275141,34.2299003 C25.3922508,34.5328904 24.2054854,34.69701 22.8924684,34.69701 C20.7966913,34.69701 19.0417936,34.3056478 17.6909012,33.5355482 C17.1101437,33.207309 16.6177623,32.8159468 16.1758816,32.3614618 C14.8754898,30.9853821 14.2189813,28.9780731 14.2189813,26.3900332 C14.2189813,19.5348837 18.9281672,18.1083056 22.8924684,18.1083056 Z M8.0957771,47.586711 C8.0957771,42.8524917 9.43404441,39.2418605 12.0727035,36.855814 C13.0700914,35.9594684 14.2568568,35.2146179 15.6077492,34.6591362 C17.4383979,36.0857143 19.8876796,36.8179402 22.8924684,36.8179402 C24.5463648,36.8179402 26.0361341,36.5906977 27.3491511,36.1488372 C27.3996517,36.2372093 27.4627775,36.3129568 27.5259034,36.4013289 C26.5158903,36.8936877 25.5816282,37.5122924 24.7483674,38.2697674 C22.1475838,40.6305648 20.8345668,44.1023256 20.8345668,48.5966777 C20.8345668,49.9727575 21.2511972,51.0710963 22.0970832,51.8916944 C12.6408359,51.8664452 8.0957771,51.5887043 8.0957771,47.586711 L8.0957771,47.586711 Z M26.9451458,51.8538206 C24.0666086,51.4750831 22.6525903,50.6039867 22.6525903,48.5840532 C22.6525903,44.6325581 23.7762299,41.6152824 25.9730083,39.620598 C26.7936439,38.8757475 27.7784066,38.2571429 28.889421,37.8026578 C29.7479321,38.4717608 30.7579451,38.951495 31.9194602,39.2418605 C32.601219,39.4186047 33.3334785,39.5322259 34.1288637,39.5700997 C34.4066173,39.5827243 34.6969961,39.5953488 35,39.5953488 C35.3030039,39.5953488 35.5807575,39.5827243 35.8711363,39.5700997 C36.6538964,39.5196013 37.3861559,39.4059801 38.0805398,39.2418605 C39.2420549,38.951495 40.2520679,38.4591362 41.110579,37.8026578 C42.2215934,38.2697674 43.2063561,38.8757475 44.0269917,39.620598 C46.2237701,41.6152824 47.3474097,44.6325581 47.3474097,48.5840532 C47.3474097,50.6039867 45.9333914,51.4750831 43.0548542,51.8538206 C42.9412277,51.8664452 42.8276012,51.8790698 42.7139747,51.8916944 C42.6887244,51.8916944 42.6508489,51.9043189 42.6255986,51.9043189 C42.5372225,51.9169435 42.4362212,51.9295681 42.3352199,51.9295681 C42.3099695,51.9295681 42.2847192,51.9295681 42.2468437,51.9421927 C42.1205921,51.9548173 41.9943404,51.9674419 41.8680888,51.9800664 C41.8680888,51.9800664 41.8680888,51.9800664 41.8680888,51.9800664 C41.7418372,51.992691 41.6155855,52.0053156 41.4893339,52.0053156 C41.4514584,52.0053156 41.4135829,52.0053156 41.3883326,52.0179402 C41.2873313,52.0305648 41.18633,52.0305648 41.0727035,52.0305648 C41.034828,52.0305648 40.9969525,52.0305648 40.9717022,52.0305648 C40.8328254,52.0431894 40.7065738,52.0431894 40.567697,52.055814 C40.5298215,52.055814 40.491946,52.055814 40.4540705,52.055814 C40.3530692,52.055814 40.2520679,52.0684385 40.1510666,52.0684385 C40.0879408,52.0684385 40.024815,52.0684385 39.9616892,52.0810631 C39.873313,52.0810631 39.797562,52.0810631 39.7091859,52.0936877 C39.6460601,52.0936877 39.5829343,52.0936877 39.5071833,52.0936877 C39.406182,52.0936877 39.2925555,52.0936877 39.1915542,52.1063123 C39.0779277,52.1063123 38.9643013,52.1063123 38.8380496,52.1189369 C38.7749238,52.1189369 38.7244232,52.1189369 38.6612973,52.1189369 C38.560296,52.1189369 38.4592947,52.1189369 38.3582934,52.1189369 C38.3077928,52.1189369 38.2699173,52.1189369 38.2194166,52.1189369 C37.9795385,52.1189369 37.7396604,52.1189369 37.4871572,52.1315615 C37.3609055,52.1315615 37.2346539,52.1315615 37.1210274,52.1315615 C36.4518938,52.1315615 35.7448846,52.1315615 35.0126252,52.1315615 C34.1288637,52.1315615 33.3082281,52.1315615 32.525468,52.1189369 C30.2655638,52.1189369 28.4222899,52.055814 26.9451458,51.8538206 L26.9451458,51.8538206 Z M47.9281672,51.8790698 C48.7740531,51.0584718 49.1906835,49.9601329 49.1906835,48.5840532 C49.1906835,44.089701 47.8776665,40.6179402 45.2768829,38.2571429 L45.2768829,38.2571429 C44.4436221,37.5122924 43.50936,36.8810631 42.499347,36.3887043 C42.5624728,36.3129568 42.6129734,36.2245847 42.6760993,36.1362126 C43.9891162,36.5780731 45.4788855,36.8053156 47.1327819,36.8053156 C50.1375707,36.8053156 52.5868524,36.0730897 54.4175011,34.6465116 C55.7557684,35.2019934 56.9425337,35.9468439 57.9525468,36.8431894 C60.5912059,39.2292359 61.9294732,42.8398671 61.9294732,47.5740864 C61.9042229,51.5887043 57.3591641,51.8664452 47.9281672,51.8790698 Z" id="Shape"></path>
                        </g>
                    </g>
                </g>
            </g>
        </g>
    </g>
</svg>