<?xml version="1.0" encoding="UTF-8"?>
<svg width="40px" height="40px" viewBox="0 0 40 40" version="1.1" xmlns="http://www.w3.org/2000/svg" xmlns:xlink="http://www.w3.org/1999/xlink">
    <!-- Generator: Sketch 56.3 (81716) - https://sketch.com -->
    <title>Fill 1</title>
    <desc>Created with Sketch.</desc>
    <g id="ACCESIBILIDAD" stroke="none" stroke-width="1" fill="none" fill-rule="evenodd">
        <g id="1D---Roaming-Pospago-(Página-Interna)" transform="translate(-580.000000, -1196.000000)" fill="#5BC500">
            <g id="Group-38" transform="translate(0.000000, 1065.000000)">
                <g id="Group-31" transform="translate(165.000000, 29.000000)">
                    <g id="Group-25">
                        <g id="Group-24" transform="translate(0.000000, 93.000000)">
                            <g id="Group-22" transform="translate(285.000000, 9.000000)">
                                <path d="M158.771566,9.84201346 C159.114747,9.53974073 159.318384,9.12201346 159.345202,8.66564982 C159.371566,8.20883164 159.217475,7.77019527 158.91202,7.43064982 L158.346566,6.80292255 L164.992929,6.28792255 L163.570656,12.9383771 L162.96202,12.2656498 C162.34202,11.5792862 161.267475,11.5115589 160.566111,12.1142862 L154.267475,17.5279225 L152.398384,15.4492862 L158.771566,9.84201346 Z M152.736111,19.2238316 C153.061111,19.6551953 153.545656,19.9256498 154.077475,19.9697407 C154.606111,20.0138316 155.11702,19.8338316 155.488838,19.4747407 L161.637929,14.1897407 L162.992929,15.6892862 C163.383384,16.1211044 163.92202,16.2970135 164.434293,16.1592862 C164.94702,16.022468 165.325656,15.6001953 165.447475,15.0311044 L167.414747,5.83019527 C167.521566,5.33064982 167.398384,4.83292255 167.076566,4.46519527 C166.782475,4.12928618 166.359293,3.942468 165.901111,3.942468 C165.856566,3.942468 165.81202,3.94428618 165.767929,3.94792255 L156.436111,4.67155891 C155.848384,4.717468 155.378838,5.04110437 155.180656,5.53792255 C154.98202,6.03519527 155.098838,6.59337709 155.493384,7.03110437 L156.833838,8.51974073 L150.712929,13.9047407 C150.30202,14.2051953 150.032475,14.6611044 149.968838,15.1711044 C149.901111,15.7133771 150.074293,16.2697407 150.43202,16.6611044 L152.736111,19.2238316 Z M165.784293,35.697468 C165.487929,36.0070135 165.026566,36.3888316 164.41202,36.8315589 C164.387929,36.8492862 164.366566,36.8647407 164.346566,36.8792862 C162.672475,38.0183771 159.738838,37.8833771 156.291566,36.5083771 C152.143838,34.8542862 147.559747,31.5888316 143.035202,27.0651953 L142.956566,26.9847407 C142.949293,26.9770135 142.942475,26.9701953 142.934747,26.9629225 L142.853838,26.8842862 C138.330202,22.3592862 135.064747,17.7751953 133.410656,13.627468 C132.035656,10.1801953 131.900656,7.24701346 133.039293,5.57292255 C133.054293,5.552468 133.069747,5.53110437 133.087475,5.50655891 C133.530656,4.89201346 133.912475,4.43064982 134.221566,4.13474073 C135.537929,2.87792255 136.792929,2.25428618 137.956111,2.27337709 C139.083838,2.29474073 140.224293,2.89701346 141.442475,4.11474073 C141.96702,4.63974073 142.386111,5.17019527 142.687929,5.69155891 C142.694293,5.702468 142.700656,5.71292255 142.70702,5.72292255 C143.295202,6.667468 143.505656,7.57110437 143.350656,8.48564982 C143.183838,9.46974073 142.580656,10.4879225 141.55702,11.5111044 C141.26202,11.8061044 141.089293,11.9633771 140.647475,12.3115589 C140.600202,12.3488316 140.556111,12.3892862 140.515656,12.4333771 C140.067929,12.9192862 139.607475,13.7870135 139.955656,15.1638316 C140.153384,15.9433771 140.589293,16.8183771 141.288838,17.8383771 C142.621111,19.7792862 144.764293,21.9929225 146.260202,23.4888316 L146.430202,23.6583771 C147.926111,25.1547407 150.139293,27.2979225 152.080656,28.6297407 C153.100656,29.3297407 153.975656,29.7656498 154.755202,29.9633771 C156.131566,30.3115589 157.000202,29.8515589 157.485656,29.4033771 C157.529747,29.3629225 157.570202,29.3188316 157.607475,29.2715589 C157.956111,28.8297407 158.113384,28.6570135 158.407929,28.3620135 C159.431111,27.3388316 160.448838,26.7351953 161.433384,26.5683771 C162.347929,26.4133771 163.251566,26.6238316 164.195656,27.2120135 C164.206111,27.2188316 164.21702,27.2247407 164.227475,27.2311044 C164.748384,27.5329225 165.279293,27.9520135 165.804293,28.4765589 C167.02202,29.6947407 167.625202,30.8351953 167.645656,31.9629225 C167.667475,33.1251953 167.041111,34.3811044 165.784293,35.697468 L165.784293,35.697468 Z M167.411566,26.8697407 C166.751566,26.2101953 166.068838,25.6729225 165.381566,25.2729225 C163.970202,24.3979225 162.513838,24.0801953 161.053838,24.327468 C159.595202,24.5747407 158.164293,25.3915589 156.801111,26.7547407 C156.450656,27.1051953 156.236566,27.3451953 155.904293,27.7615589 C155.666111,27.8947407 154.911111,27.8156498 153.366566,26.7556498 C151.580202,25.5306498 149.469293,23.4842862 148.03702,22.0515589 L147.867475,21.8820135 C146.434747,20.4497407 144.388384,18.3388316 143.163384,16.552468 C142.103838,15.007468 142.023838,14.2529225 142.157475,14.0147407 C142.573838,13.6829225 142.813384,13.4688316 143.163838,13.1179225 C144.527475,11.7547407 145.344293,10.3242862 145.591566,8.86564982 C145.838838,7.40519527 145.521111,5.94928618 144.646111,4.537468 C144.246111,3.84974073 143.708838,3.16701346 143.049293,2.507468 C141.418384,0.876558911 139.718838,0.0333770925 137.998838,0.00110436523 C136.215202,-0.0348047257 134.416566,0.805195274 132.651566,2.49110437 C132.033838,3.08201346 131.439293,3.90610437 131.243838,4.177468 C131.233838,4.19155891 131.225202,4.20337709 131.219293,4.21201346 C131.206111,4.22837709 131.193838,4.24519527 131.182475,4.26292255 C129.566566,6.60383164 129.607929,10.2288316 131.299747,14.4697407 C133.067929,18.9033771 136.509293,23.7538316 141.252475,28.4970135 C141.255656,28.5001953 141.258838,28.5033771 141.26202,28.5061044 L141.41202,28.6565589 L141.42202,28.6665589 C146.165202,33.4097407 151.015656,36.8511044 155.449293,38.6197407 C157.621111,39.4856498 159.631111,39.9192862 161.389747,39.9192862 C163.065656,39.9192862 164.514293,39.5256498 165.656566,38.7365589 C165.673838,38.7251953 165.690656,38.7129225 165.70702,38.7001953 C165.715202,38.6938316 165.72702,38.6856498 165.741111,38.6756498 C166.01202,38.4801953 166.836566,37.8856498 167.427929,37.2670135 C169.113838,35.5020135 169.951566,33.7033771 169.917929,31.9201953 C169.886111,30.2001953 169.042929,28.5011044 167.411566,26.8697407 L167.411566,26.8697407 Z" id="Fill-1"></path>
                            </g>
                        </g>
                    </g>
                </g>
            </g>
        </g>
    </g>
</svg>