<?xml version="1.0" encoding="UTF-8"?>
<svg width="50px" height="34px" viewBox="0 0 50 34" version="1.1" xmlns="http://www.w3.org/2000/svg" xmlns:xlink="http://www.w3.org/1999/xlink">
    <!-- Generator: Sketch 56.3 (81716) - https://sketch.com -->
    <title>Group 3</title>
    <desc>Created with Sketch.</desc>
    <defs>
        <polygon id="path-1" points="2.96975575e-05 6.06060606e-05 49.6972727 6.06060606e-05 49.6972727 33.0930303 2.96975575e-05 33.0930303"></polygon>
    </defs>
    <g id="ACCESIBILIDAD" stroke="none" stroke-width="1" fill="none" fill-rule="evenodd">
        <g id="1D---Roaming-Pospago-(Página-Interna)" transform="translate(-1123.000000, -1203.000000)">
            <g id="Group-38" transform="translate(0.000000, 1065.000000)">
                <g id="Group-31" transform="translate(165.000000, 29.000000)">
                    <g id="Group-25">
                        <g id="Group-24" transform="translate(0.000000, 93.000000)">
                            <g id="Group-23-Copy-2" transform="translate(855.000000, 16.000000)">
                                <g id="Group-3" transform="translate(103.000000, 0.000000)">
                                    <mask id="mask-2" fill="white">
                                        <use xlink:href="#path-1"></use>
                                    </mask>
                                    <g id="Clip-2"></g>
                                    <path d="M28.6696061,16.4867273 C27.5147576,17.544303 26.138697,18.103697 24.6902121,18.103697 C23.2411212,18.103697 21.8650606,17.544303 20.7105152,16.4858182 L6.93809091,3.86278788 C10.1938485,3.08218182 15.839303,3.08218182 24.6144545,3.08218182 C33.4614242,3.08218182 39.149303,3.08218182 42.419303,3.88369697 L28.6696061,16.4867273 Z M2.68223398,15.5776364 C2.68081818,10.014 2.68021212,7.00006061 4.00718182,5.41490909 L18.769,18.974303 C20.4838485,20.5473333 22.5371818,21.3791515 24.7068788,21.3791515 C26.8808182,21.3791515 28.9368788,20.5476364 30.6526364,18.9755152 L45.4068788,5.44854545 C46.8044545,7.11884848 46.8044545,10.3518788 46.8044545,16.3388485 C46.8044545,23.5979394 46.7071818,26.8667273 44.4050606,28.3246061 C41.7405152,30.0109697 35.6599091,30.0109697 24.6220303,30.0109697 C13.2844545,30.0109697 7.59384848,30.0109697 4.96536364,28.3282424 C2.76990909,26.9224848 2.68223398,23.8285455 2.68223398,16.3430909 L2.68223398,16.0894545 L2.68223398,15.5776364 Z M46.0150606,2.0609697 C42.7262727,6.06060606e-05 36.6759697,6.06060606e-05 24.6220303,6.06060606e-05 C12.7371818,6.06060606e-05 6.7720303,6.06060606e-05 3.50354545,2.02521212 C-0.00493939394,4.19915152 -0.00281818182,8.32309091 0.000818181818,15.1552121 L0.00112121212,15.8515758 L0.00112121212,16.3430909 L2.96975575e-05,17.2294545 C-0.00554545455,24.364303 -0.00918181818,28.6706667 3.58718182,30.9733939 C6.8959697,33.0930909 12.8447576,33.0930909 24.6965758,33.0930909 C36.5935455,33.0930909 42.5650606,33.0930909 45.9065758,30.9779394 C49.6974848,28.5770303 49.6974848,24.0164242 49.6974848,16.4597576 L49.6974848,16.3430909 C49.6974848,8.87581818 49.6974848,4.36824242 46.0150606,2.0609697 L46.0150606,2.0609697 Z" id="Fill-1" fill="#5BC500" mask="url(#mask-2)"></path>
                                </g>
                            </g>
                        </g>
                    </g>
                </g>
            </g>
        </g>
    </g>
</svg>