<?xml version="1.0" encoding="UTF-8"?>
<svg width="160px" height="55px" viewBox="0 0 160 55" version="1.1" xmlns="http://www.w3.org/2000/svg" xmlns:xlink="http://www.w3.org/1999/xlink">
    <!-- Generator: sketchtool 57 (101010) - https://sketch.com -->
    <title>1C821B04-AD99-4066-9E96-04D22399E794</title>
    <desc>Created with sketchtool.</desc>
    <defs>
        <polygon id="path-1" points="0 0 160 0 160 54.2222222 0 54.2222222"></polygon>
    </defs>
    <g id="Page-1" stroke="none" stroke-width="1" fill="none" fill-rule="evenodd">
        <g id="1M---Slide-1" transform="translate(-108.000000, -237.000000)">
            <g id="Group-10" transform="translate(0.000000, 184.000000)">
                <g id="logo-mplay" transform="translate(108.000000, 53.000000)">
                    <mask id="mask-2" fill="white">
                        <use xlink:href="#path-1"></use>
                    </mask>
                    <g id="Clip-2"></g>
                    <path d="M156.01994,18.7840246 L156.01994,38.1805629 C155.028625,38.6662594 153.958108,39.0478466 152.807085,39.3226775 C151.656062,39.5983908 150.569008,39.7355857 149.545925,39.7355857 C147.819608,39.7355857 146.556746,39.3310592 145.757775,38.5202417 C145.342188,38.0998341 145.045838,37.5726703 144.870465,36.940515 C144.694656,36.3088007 144.606752,35.4904838 144.606752,34.4860052 L144.606752,18.7840246 L140.626693,18.7840246 L140.626693,34.9717017 C140.626693,37.7914764 141.281623,39.8657224 142.593223,41.1944397 C143.935286,42.5880048 145.901816,43.2845668 148.491074,43.2845668 C151.04813,43.2845668 153.557752,42.5721238 156.01994,41.1454731 L156.01994,44.4024187 C156.01994,45.731136 155.900269,46.8004623 155.660491,47.6112799 C155.420277,48.420774 155.044291,49.0692516 154.533402,49.5553893 C153.574288,50.4301723 151.943709,50.8677844 149.642097,50.8677844 C148.171225,50.8677844 146.66902,50.7707333 145.134177,50.57619 L145.470128,53.7356435 C146.01322,53.8648978 146.748221,53.9791534 147.676002,54.0762045 C148.602913,54.1736967 149.450188,54.2222222 150.217391,54.2222222 C153.701793,54.2222222 156.243182,53.3474392 157.841995,51.5969908 C159.280665,50.0415269 160,47.6593643 160,44.4513854 L160,18.7840246 L156.01994,18.7840246 Z M131.083862,38.4721573 C130.189154,38.9260916 129.197403,39.2984148 128.110785,39.5900091 C127.023732,39.8816035 126.01675,40.0271801 125.089839,40.0271801 C123.523229,40.0271801 122.324337,39.6716202 121.493163,38.9578537 C120.661555,38.2454107 120.246838,37.1760844 120.246838,35.7498748 C120.246838,34.3567508 120.678091,33.3028645 121.541467,32.5899802 C122.564115,31.780045 124.306099,31.3746362 126.768287,31.3746362 L131.083862,31.3746362 L131.083862,38.4721573 Z M133.002089,20.2909631 C131.467682,18.8325502 129.02203,18.1033437 125.665133,18.1033437 C123.172047,18.1033437 120.78993,18.379057 118.520086,18.9300424 L118.664127,22.0409703 C120.965738,21.6523249 123.075875,21.4577816 124.994101,21.4577816 C127.295712,21.4577816 128.926292,21.9280381 129.884971,22.8676689 C130.300122,23.2893999 130.604741,23.8236219 130.796215,24.4716584 C130.98856,25.120136 131.083862,25.9300713 131.083862,26.9023465 L131.083862,28.4092849 L126.192993,28.4092849 C122.516247,28.4092849 119.863019,29.1711358 118.232439,30.6939553 C116.889941,31.9578249 116.218475,33.6760699 116.218475,35.8469259 C116.218475,37.9538163 116.842073,39.6716202 118.088833,40.9994553 C119.527503,42.5231571 121.572799,43.2845668 124.226463,43.2845668 C126.847923,43.2845668 129.309677,42.5231571 131.611723,40.9994553 L131.851501,42.6038859 L135.064357,42.6038859 L135.064357,26.7563288 C135.064357,25.2008648 134.904215,23.9127325 134.5848,22.8923728 C134.264951,21.8711309 133.737525,21.0042884 133.002089,20.2909631 L133.002089,20.2909631 Z M107.683497,42.6038859 L111.663557,42.6038859 L111.663557,7.84636925 L107.683497,7.84636925 L107.683497,42.6038859 Z M97.3255944,25.0548471 C96.6854602,25.6384769 95.8547218,26.0602079 94.8320736,26.3187167 C93.8085552,26.57899 92.5304626,26.7078032 90.99562,26.7078032 L86.3445293,26.7078032 L86.3445293,12.756271 L91.1396611,12.756271 C92.7376032,12.756271 94.0561666,12.9018476 95.0957863,13.1938831 C96.1345357,13.4850363 96.9574411,13.9398529 97.5653728,14.5548038 C98.5880209,15.5928091 99.0997802,17.2453241 99.0997802,19.5132311 C99.0997802,22.0736147 98.5079497,23.9211141 97.3255944,25.0548471 L97.3255944,25.0548471 Z M97.3734631,10.0339886 C95.8068531,9.58049539 93.8407577,9.3537488 91.4751767,9.3537488 L82.0763876,9.3537488 L82.0763876,42.6038859 L86.3445293,42.6038859 L86.3445293,30.2078177 L92.4342901,30.2078177 C96.1750065,30.2078177 98.9718404,29.3012725 100.826097,27.4859763 C102.615949,25.6706802 103.511528,22.9819245 103.511528,19.41618 C103.511528,16.2077599 102.712122,13.793394 101.113744,12.1730823 C100.186398,11.2008071 98.9396378,10.488364 97.3734631,10.0339886 L97.3734631,10.0339886 Z M67.5787183,7.41184515 C65.7192394,3.05645789 62.7326716,0.264916256 58.9018752,0.0178771736 C54.6620195,-0.2547481 49.7963902,2.59722988 47.2436864,8.13002306 C44.8911605,13.2300567 43.0086176,18.4655207 41.8671682,21.1379542 C40.7087472,23.8478847 39.0067996,25.5180454 36.3901259,25.7968466 C33.1903251,26.1382899 30.433962,23.7839192 28.4152111,20.4272757 C26.6545156,17.5007448 23.1657623,11.9295724 21.2993207,10.057369 C19.5460231,8.298539 17.5425031,6.09724432 13.3727097,6.16473892 C10.0767365,6.21767587 3.99263279,7.86533833 1.21407603,19.3698602 C0.00299953293,24.3825479 -0.464807595,29.6078656 0.571765967,35.8275157 C1.52696285,41.5641161 3.22064223,46.515044 4.36165646,49.2439436 C4.75461444,50.1844566 5.36385163,51.1642313 5.83470495,51.7681536 C7.18895219,53.503162 9.44312979,53.3924356 10.3900585,52.9195322 C11.4231507,52.4042793 12.6094225,51.160261 12.1799103,48.3193116 C11.9718993,46.9473624 11.3735413,44.9397287 11.036285,43.8232003 C10.0023225,40.398621 8.62544645,36.2668923 8.50577486,33.323157 C8.34519734,29.3855304 9.87612336,28.8702775 10.8935495,28.643972 C12.6037653,28.2619437 14.0376485,30.1659092 15.3997288,32.551601 C17.0250866,35.3991675 19.8114764,40.4449408 22.0839311,44.2983094 C24.135755,47.7775901 27.9221641,51.5017043 34.0014809,51.2462836 C40.2009045,50.9860102 44.7701834,48.5888489 47.1240148,41.0404814 C48.8851455,35.3934327 50.0857779,31.1743581 52.0179301,26.8524975 C54.2390349,21.8830417 57.2025386,19.2234013 59.6978001,20.0355423 C62.0146421,20.7894526 62.5934174,23.0851515 62.6212682,26.4598819 C62.6460729,29.4450845 62.3049001,32.7355568 62.0403171,35.1530107 C61.9437095,36.0304406 61.7700769,37.7954466 61.8410095,38.7752213 C61.9806989,40.701685 62.8036042,42.6255018 64.9433323,42.9329773 C67.2223145,43.2607452 69.0513316,41.4145692 69.7815459,39.1828358 C70.0696281,38.302759 70.3154988,36.9559549 70.4482255,36.0008842 C71.1179512,31.1778872 71.292019,27.9354992 70.9895762,23.0004524 C70.6362186,17.2290018 69.5221849,11.9661871 67.5787183,7.41184515 L67.5787183,7.41184515 Z" id="Fill-1" fill="#FFFFFF" mask="url(#mask-2)"></path>
                </g>
            </g>
        </g>
    </g>
</svg>