<?xml version="1.0" encoding="UTF-8"?>
<svg width="70px" height="70px" viewBox="0 0 70 70" version="1.1" xmlns="http://www.w3.org/2000/svg" xmlns:xlink="http://www.w3.org/1999/xlink">
    <!-- Generator: sketchtool 58 (101010) - https://sketch.com -->
    <title>6015B75A-68F0-407D-88A3-BF29FFC70997</title>
    <desc>Created with sketchtool.</desc>
    <g id="Page-1" stroke="none" stroke-width="1" fill="none" fill-rule="evenodd">
        <g id="1D---Consejos-de-Seguridad" transform="translate(-307.000000, -966.000000)">
            <rect fill="#FFFFFF" x="0" y="0" width="1440" height="1694"></rect>
            <g id="Comprar" transform="translate(0.000000, 809.000000)">
                <g id="Group-5">
                    <rect id="Rectangle" fill="#F4F4F3" x="0" y="0" width="1440" height="332"></rect>
                    <g id="Envío-gratis" transform="translate(167.000000, 126.000000)">
                        <polygon id="Background" fill="#F4F4F3" points="0 0 350 0 350 200 0 200"></polygon>
                        <g id="icono-nube-outlined" transform="translate(140.000000, 31.000000)" fill="#50535A" fill-rule="nonzero">
                            <g id="sms" transform="translate(16.000000, 8.000000)">
                                <path d="M31.362299,18.2298456 L29.9173398,18.2298456 C29.5625277,18.2298456 29.2745643,18.5180103 29.2745643,18.8730703 L29.2745643,18.8730703 L29.2745643,44.9828473 C29.2745643,47.9056604 26.9091508,50.2727273 23.9883792,50.2727273 L8.01669521,50.2727273 C5.09592364,50.2727273 2.73051004,47.9056604 2.73051004,44.9828473 L2.73051004,44.9828473 L2.73051004,13.0222985 C2.73051004,10.0994854 5.09592364,7.73241852 8.01669521,7.73241852 L8.01669521,7.73241852 L12.1510268,7.73241852 C12.6138251,7.73241852 12.9840638,7.3567753 12.9840638,6.89879931 L12.9840638,6.89879931 L12.9840638,5.87478559 C12.9789216,5.39108062 12.5881141,5 12.104747,5 C12.104747,5 12.104747,5 12.104747,5 L8.01669521,5 C5.3427494,5 3.37328548,5.67409949 2.00545935,7.05831904 C0.63763323,8.44253859 0,10.3773585 0,13.0222985 L0,44.9777015 C0,47.6946827 0.658202044,49.6758148 2.01574376,51.0137221 C3.37328548,52.3516295 5.32732279,53 8.01669521,53 L23.983237,53 C26.6726094,53 28.6420733,52.3464837 29.9841884,51.0137221 C31.3263035,49.6809605 32,47.6946827 32,44.9777015 L32,18.8730703 C32.0050744,18.5180103 31.717111,18.2298456 31.362299,18.2298456 L31.362299,18.2298456 L31.362299,18.2298456 Z" id="Path"></path>
                                <path d="M15.5047259,46.9858491 C15.5661626,46.990566 15.6323251,46.995283 15.7032136,46.995283 C16.9744802,46.995283 18,45.9669811 18,44.7028302 C18,44.6320755 17.9952741,44.5613208 17.9905482,44.490566 L17.9905482,44.5 C17.9952741,44.4339623 18,44.3632075 18,44.2877358 C18,43.0235849 16.9744802,42 15.7079395,42 C15.637051,42 15.5614367,42.004717 15.4905482,42.009434 L15.5,42.009434 C15.4385633,42.004717 15.3676749,42 15.2920605,42 C14.0255198,42 13,43.0235849 13,44.2877358 C13,44.3632075 13.0047259,44.4386792 13.0094518,44.509434 L13.0094518,44.5 C13.0047259,44.5613208 13,44.6320755 13,44.7075472 C13,45.9764151 14.0302457,47 15.2967864,47 C15.3676749,47 15.4338374,46.995283 15.5047259,46.990566 L15.5047259,46.9858491 L15.5047259,46.9858491 Z" id="Path"></path>
                                <path d="M26.5,0 C17.8542103,0 14,2.50973554 14,8.12205754 C14,11.1752398 15.1730205,13.2946818 17.581902,14.6137751 C17.5190616,14.8410346 17.4614579,15.1275792 17.4195643,15.4190642 L17.4143276,15.4585876 C17.4090909,15.5277536 17.4038542,15.6117408 17.4038542,15.6907876 C17.4038542,15.7698344 17.4090909,15.8538216 17.4143276,15.9328684 L17.4143276,15.9229875 C17.4195643,16.1304853 17.477168,16.3231619 17.581902,16.4960767 L17.5766653,16.4911363 C17.6237956,16.5701831 17.6761625,16.639349 17.7390029,16.6986341 L17.7390029,16.6986341 C17.9903645,16.8863702 18.3098031,17 18.6606619,17 C18.7182656,17 18.781106,16.9950596 18.8387097,16.9901192 L18.833473,16.9901192 C19.5037704,16.9802383 20.1478844,16.8814298 20.7605781,16.7134554 L20.7082111,16.7233362 C21.336615,16.5306597 21.8812317,16.2935193 22.3839548,16.0020343 L22.3472979,16.021796 C23.5517386,16.1798896 24.9499372,16.2737576 26.3638458,16.2737576 C26.4266862,16.2737576 26.4895266,16.2737576 26.552367,16.2737576 L26.5418936,16.2737576 C35.1457897,16.2589364 39,13.7343795 39,8.13687881 C39,2.53937809 35.140553,0 26.5,0 L26.5,0 Z M26.5,14.7125836 C26.4319229,14.7125836 26.3533724,14.7125836 26.2695853,14.7125836 C24.8452032,14.7125836 23.4522413,14.6137751 22.0854629,14.4210985 L22.2373272,14.4408602 L22.1064097,14.4408602 C22.1064097,14.4408602 22.101173,14.4408602 22.101173,14.4408602 C21.9388354,14.4408602 21.7869711,14.485324 21.6612903,14.5643708 L21.666527,14.5643708 C21.2423544,14.8360942 20.7501047,15.0682941 20.2316716,15.2313281 L20.189778,15.241209 C19.875576,15.3498983 19.5090071,15.4388259 19.1267281,15.498111 L19.0900712,15.5030514 C19.1476749,15.1226388 19.2314621,14.7817495 19.3466695,14.4556815 L19.3361961,14.4952049 C19.3623796,14.4210985 19.3780897,14.3371113 19.3780897,14.2481837 C19.3780897,13.9468178 19.1895685,13.6849753 18.9172602,13.5614647 L18.9120235,13.5614647 C16.6811898,12.5486777 15.6757436,10.8294101 15.6757436,8.15170009 C15.63385,3.45335658 18.781106,1.53153153 26.5,1.53153153 C34.218894,1.53153153 37.36615,3.43853531 37.36615,8.11217669 C37.36615,12.7858181 34.2136573,14.7125836 26.5,14.7125836 L26.5,14.7125836 Z" id="Shape"></path>
                            </g>
                        </g>
                    </g>
                </g>
            </g>
        </g>
    </g>
</svg>